<svg xmlns="http://www.w3.org/2000/svg" width="22" height="22" viewBox="0 0 22 22">
    <g fill="none" fill-rule="evenodd" stroke="#778489" stroke-linecap="round" stroke-linejoin="round" stroke-width="2">
        <path d="M21 11c0 5.522-4.477 10-10 10S1 16.522 1 11C1 5.477 5.477 1 11 1s10 4.477 10 10z"/>
        <path d="M5.365 19.028V7.138c0-1.09.883-1.971 1.973-1.971h7.324c1.09 0 1.973.882 1.973 1.972v11.889M12.955 5.166V20.81"/>
    </g>
</svg>
