<svg xmlns="http://www.w3.org/2000/svg" width="22" height="22" viewBox="0 0 22 22">
    <g fill="none" fill-rule="evenodd" stroke="#778489" stroke-linecap="round" stroke-linejoin="round" stroke-width="2">
        <path d="M5.607 19.422A9.992 9.992 0 0 1 1 11a9.991 9.991 0 0 1 4.408-8.292M16.393 19.422A9.993 9.993 0 0 0 21 11a9.992 9.992 0 0 0-4.409-8.292"/>
        <path d="M14.584 21H7.417c-.995 0-1.81-.814-1.81-1.81V2.81c0-.997.815-1.81 1.81-1.81h7.167c.995 0 1.809.814 1.809 1.81v16.38c0 .996-.814 1.81-1.81 1.81zM5.607 14.631h10.786M10.381 17.79h1.238"/>
    </g>
</svg>
