<svg xmlns="http://www.w3.org/2000/svg" xmlns:xlink="http://www.w3.org/1999/xlink" width="102" height="102" viewBox="0 0 102 102">
    <defs>
        <path id="a" d="M0 .175h101.824V102H0z"/>
    </defs>
    <g fill="none" fill-rule="evenodd">
        <path fill="#7FBE72" d="M33.668 19.951l-.79-1.192-2.741 1.818-1.055-1.59 2.099-1.392-.76-1.146-2.1 1.393-1.033-1.559 2.74-1.818-.79-1.192-4.299 2.852 4.43 6.678zM37.234 18.275l-1.45-4.043a7.389 7.389 0 0 0-.138-.351 14.422 14.422 0 0 0-.164-.377l5.168 3.219a.782.782 0 0 0 .352.13.892.892 0 0 0 .363-.06l.911-.326-2.705-7.544-1.543.554 1.432 3.99a7.6 7.6 0 0 0 .15.384c.055.133.115.27.181.41l-5.207-3.245a1.5 1.5 0 0 0-.18-.093.521.521 0 0 0-.148-.038.518.518 0 0 0-.154.012 1.51 1.51 0 0 0-.195.058l-.92.33 2.704 7.544 1.543-.554zM48.93 15.628l2.57-8.24L50 7.504a.63.63 0 0 0-.571.448l-1.198 4.398c-.051.192-.102.4-.153.625-.05.224-.09.46-.123.704a12.123 12.123 0 0 0-.254-.675 16.86 16.86 0 0 0-.26-.592L45.558 8.26a.615.615 0 0 0-.242-.274.666.666 0 0 0-.404-.078l-1.492.117 3.833 7.737 1.678-.133zM56.8 10.76a8.63 8.63 0 0 0 .25-.462c.09-.179.182-.375.273-.587.029.227.06.44.095.635l.09.512.395 2.281-2.164-.333 1.06-2.046zm-2.612 4.781a.628.628 0 0 0 .255-.24l.679-1.31 3.012.464.255 1.452a.572.572 0 0 0 .17.32.66.66 0 0 0 .377.171l1.425.22-1.845-8.393-1.881-.29-4.287 7.448 1.435.221a.61.61 0 0 0 .405-.063zM62.844 17.388c.187.178.392.34.61.486.22.145.447.265.677.36.42.173.822.263 1.206.271.383.009.733-.052 1.049-.181.316-.13.596-.32.837-.57.24-.25.432-.546.572-.888.127-.309.188-.592.183-.85a1.91 1.91 0 0 0-.146-.711 2.186 2.186 0 0 0-.375-.593 5.872 5.872 0 0 0-.503-.507 14.62 14.62 0 0 0-.526-.448 4.307 4.307 0 0 1-.45-.412 1.348 1.348 0 0 1-.27-.408.554.554 0 0 1 .01-.43c.097-.234.252-.388.466-.46.215-.073.482-.043.805.089.186.076.342.169.468.278.126.109.233.217.322.325l.237.291c.07.086.143.145.222.177a.385.385 0 0 0 .24.027.68.68 0 0 0 .237-.117l.755-.624a2.732 2.732 0 0 0-.316-.513 3.816 3.816 0 0 0-.988-.881 4.387 4.387 0 0 0-.642-.325 3.203 3.203 0 0 0-1.16-.259 2.644 2.644 0 0 0-1.002.168 2.267 2.267 0 0 0-1.287 1.251c-.141.346-.213.656-.214.931-.002.274.042.523.13.744.09.22.214.42.372.597.157.178.325.342.504.493.18.151.358.294.533.429.173.135.324.269.449.404a1.2 1.2 0 0 1 .264.423.671.671 0 0 1-.032.481c-.122.299-.298.481-.527.547-.23.067-.5.036-.813-.092a1.803 1.803 0 0 1-.56-.343 2.964 2.964 0 0 1-.363-.398 17.556 17.556 0 0 1-.263-.358.628.628 0 0 0-.27-.223.49.49 0 0 0-.46.049l-.837.596c.085.205.203.408.35.607.149.2.318.388.506.567M73.087 23.276l.808-1.18-2.713-1.859 1.078-1.574 2.078 1.424.777-1.135-2.078-1.424 1.057-1.542 2.714 1.858.807-1.179-4.256-2.916-4.528 6.611zM18.692 27.448a5.182 5.182 0 0 1-.437-5.594 5.238 5.238 0 0 1 .437 5.595m4.451.427a5.19 5.19 0 0 1 2.86.606 5.186 5.186 0 0 1-2.732 1.041 5.156 5.156 0 0 1-2.86-.605 5.19 5.19 0 0 1 2.732-1.041m-10.4 13.172a1 1 0 0 0 1.265-.631c1.188-3.552 2.903-6.89 5.058-9.963a7.154 7.154 0 0 0 4.36 1.063 7.185 7.185 0 0 0 4.932-2.51 1 1 0 0 0-.109-1.41 7.167 7.167 0 0 0-5.262-1.714 7.267 7.267 0 0 0-1.798.379 7.225 7.225 0 0 0-2.407-6.762 1 1 0 0 0-1.41.11 7.18 7.18 0 0 0-1.716 5.26 7.164 7.164 0 0 0 1.855 4.288 40.78 40.78 0 0 0-5.4 10.624 1 1 0 0 0 .631 1.266M78.68 27.877a5.184 5.184 0 0 1 2.734 1.042 5.15 5.15 0 0 1-2.861.605 5.188 5.188 0 0 1-2.731-1.041 5.21 5.21 0 0 1 2.859-.606m4.888-6.022a5.182 5.182 0 0 1-.437 5.594 5.238 5.238 0 0 1 .437-5.594m-10.103 7.153a7.182 7.182 0 0 0 4.932 2.51 7.154 7.154 0 0 0 4.36-1.063c2.155 3.073 3.87 6.41 5.059 9.963a1 1 0 1 0 1.896-.635 40.734 40.734 0 0 0-5.4-10.624 7.167 7.167 0 0 0 1.855-4.288 7.184 7.184 0 0 0-1.716-5.261 1.001 1.001 0 0 0-1.41-.11c-2.014 1.724-2.84 4.323-2.407 6.763a7.268 7.268 0 0 0-1.798-.38 7.154 7.154 0 0 0-5.261 1.716 1 1 0 0 0-.11 1.409M9.398 46.606c.138-.27.323-.493.56-.667.233-.175.512-.3.836-.377a3.452 3.452 0 0 1 1.084-.069 3.5 3.5 0 0 1 1.055.24c.308.126.564.295.768.504.204.21.353.46.448.748.095.288.128.612.1.971a2.427 2.427 0 0 1-.252.934c-.139.268-.326.49-.56.664a2.251 2.251 0 0 1-.839.378c-.324.077-.683.1-1.079.068a3.477 3.477 0 0 1-1.059-.239 2.262 2.262 0 0 1-.768-.505 1.876 1.876 0 0 1-.445-.745 2.452 2.452 0 0 1-.098-.962c.03-.358.111-.672.25-.943m-.849 3.92c.34.39.75.705 1.23.944a4.304 4.304 0 0 0 1.59.427 4.299 4.299 0 0 0 1.63-.17c.511-.16.965-.406 1.36-.739.393-.333.717-.746.968-1.239.25-.493.4-1.05.45-1.672a4.48 4.48 0 0 0-.177-1.724 3.914 3.914 0 0 0-.757-1.382 3.84 3.84 0 0 0-1.226-.947 4.33 4.33 0 0 0-1.588-.428 4.302 4.302 0 0 0-1.636.171 3.855 3.855 0 0 0-1.364.741 3.893 3.893 0 0 0-.968 1.244 4.49 4.49 0 0 0-.448 1.675 4.46 4.46 0 0 0 .178 1.721c.168.527.42.986.758 1.377M16.575 60.115l-.27-1.761c-.026-.156-.12-.268-.287-.335l-2.584-1.014c-.05-.022-.1-.041-.147-.058a1.168 1.168 0 0 0-.146-.042l2.426-1.988a.416.416 0 0 0 .132-.174.585.585 0 0 0 .005-.27l-.283-1.837-3.47 3.045-4.465-1.921.265 1.718c.016.109.06.195.132.258.071.063.147.11.23.142l2.794 1.083c.064.027.138.049.222.066l-2.528 2.015a.652.652 0 0 0-.178.208.458.458 0 0 0-.042.304l.283 1.838 3.761-3.18 4.15 1.903zM14.324 68.228a2.288 2.288 0 0 1-.914-.103 1.882 1.882 0 0 1-.733-.462 2.472 2.472 0 0 1-.523-.814 2.506 2.506 0 0 1-.205-.954c0-.303.065-.586.196-.848.13-.261.323-.5.576-.715.255-.216.567-.4.937-.552a3.427 3.427 0 0 1 1.048-.264c.332-.026.637.008.913.103.276.094.522.249.738.463.215.215.391.489.528.82.135.33.202.646.2.948-.004.302-.07.585-.2.846-.13.262-.323.5-.578.716a3.458 3.458 0 0 1-.93.549 3.494 3.494 0 0 1-1.053.267m3.153.603c.385-.374.678-.8.88-1.274a3.94 3.94 0 0 0 .302-1.543c0-.553-.118-1.118-.356-1.695a4.455 4.455 0 0 0-.938-1.457 3.912 3.912 0 0 0-1.299-.89 3.84 3.84 0 0 0-1.522-.29 4.305 4.305 0 0 0-1.61.338 4.3 4.3 0 0 0-1.38.893 3.86 3.86 0 0 0-.882 1.277 3.9 3.9 0 0 0-.3 1.548c.001.554.121 1.12.358 1.696.237.577.55 1.062.937 1.455.388.394.821.689 1.301.884.478.196.986.29 1.523.286a4.292 4.292 0 0 0 1.61-.338 4.267 4.267 0 0 0 1.376-.89M18.865 73.74l-1.633-2.48-1.148.755 1.633 2.481zM22.984 77.65a3.279 3.279 0 0 1-.412-.375l-.66-.707 1.444-1.354.744.795c.143.153.254.296.334.43.08.133.126.263.137.388a.685.685 0 0 1-.072.369c-.06.12-.16.247-.298.377-.143.133-.28.22-.416.265a.713.713 0 0 1-.4.014 1.162 1.162 0 0 1-.4-.202m-.708 1.932a1.46 1.46 0 0 1-.561.536.808.808 0 0 1-.369.097.943.943 0 0 1-.426-.102 1.613 1.613 0 0 1-.48-.375l-.895-.956 1.458-1.364.886.947c.16.17.278.328.351.47a.965.965 0 0 1 .117.399.658.658 0 0 1-.08.348m1.833-.395c.204.045.398.057.58.037.183-.02.352-.07.51-.145.156-.077.3-.177.43-.3.242-.225.421-.47.541-.734.12-.265.163-.551.13-.858-.03-.308-.142-.638-.333-.992-.19-.354-.475-.733-.853-1.137L23.1 72.907l-5.848 5.477 2.188 2.337c.328.35.665.62 1.01.809.346.189.684.302 1.018.339.333.037.653.003.956-.101.305-.104.581-.273.831-.506.33-.308.512-.653.55-1.034.036-.382-.079-.81-.346-1.282.23.116.447.197.652.24M28.692 78.403l-4.876 6.359L25.3 85.9l4.876-6.36zM35.477 86.004c-.052.33-.168.67-.348 1.023-.18.357-.388.653-.624.889a2.27 2.27 0 0 1-.76.518 1.876 1.876 0 0 1-.858.128 2.467 2.467 0 0 1-.927-.276 2.498 2.498 0 0 1-.776-.59 1.872 1.872 0 0 1-.405-.77 2.285 2.285 0 0 1-.03-.92c.053-.328.169-.671.35-1.027.18-.353.388-.648.622-.884.235-.236.489-.41.76-.518.27-.11.558-.152.862-.13.303.023.615.116.936.279.316.16.573.357.768.588.195.23.328.488.4.77.073.285.083.59.03.92m.87-2.593a4.405 4.405 0 0 0-1.373-1.053 4.47 4.47 0 0 0-1.662-.493 3.89 3.89 0 0 0-1.565.173c-.492.16-.94.419-1.344.773a4.28 4.28 0 0 0-1 1.306 4.316 4.316 0 0 0-.465 1.577 3.876 3.876 0 0 0 .165 1.543c.158.494.419.95.782 1.37.363.418.822.769 1.378 1.05a4.445 4.445 0 0 0 1.659.493 3.861 3.861 0 0 0 1.562-.178 3.89 3.89 0 0 0 1.343-.777 4.335 4.335 0 0 0 1-1.305c.26-.513.415-1.037.462-1.573a3.833 3.833 0 0 0-.941-2.906M44.016 89.697c-.09.39-.22.729-.391 1.017a2.285 2.285 0 0 1-.612.692 1.916 1.916 0 0 1-.803.34c-.298.055-.62.043-.966-.036l-1.212-.277 1.146-5.024 1.212.277c.347.079.643.207.889.386.244.178.436.396.574.656.139.259.223.555.252.889a3.53 3.53 0 0 1-.09 1.08m1.379-2.625a3.913 3.913 0 0 0-1.093-1.107 4.613 4.613 0 0 0-1.593-.674l-3.034-.693-1.784 7.813 3.035.693a4.656 4.656 0 0 0 1.726.087 3.84 3.84 0 0 0 1.465-.523 3.76 3.76 0 0 0 1.106-1.051c.304-.433.52-.932.649-1.496a4.21 4.21 0 0 0 .064-1.625 3.737 3.737 0 0 0-.541-1.424M47.797 94.214l5.158.083.024-1.429-3.29-.053.032-1.909 2.518.041.023-1.375-2.52-.04.032-1.87 3.288.053.023-1.43-5.158-.084zM58.946 89.287l.193 1.004a.31.31 0 0 0 .142.214.382.382 0 0 0 .287.04l.778-.15.23 1.194a3.36 3.36 0 0 1-.518.28c-.186.08-.405.144-.657.192a2.387 2.387 0 0 1-.949.001 2.079 2.079 0 0 1-.822-.37 2.443 2.443 0 0 1-.636-.73 3.356 3.356 0 0 1-.387-1.08 3.213 3.213 0 0 1-.04-1.058c.044-.329.142-.62.292-.877s.351-.472.602-.645c.25-.174.546-.293.888-.359a4.43 4.43 0 0 1 .502-.069 2.49 2.49 0 0 1 .859.084c.14.038.291.087.451.146.13.05.248.064.355.043a.439.439 0 0 0 .218-.109.605.605 0 0 0 .147-.212l.374-.907a3.665 3.665 0 0 0-1.353-.524 4.652 4.652 0 0 0-.839-.068 4.984 4.984 0 0 0-.939.097 4.797 4.797 0 0 0-1.663.628c-.475.297-.86.658-1.153 1.084-.293.426-.49.903-.59 1.432a4.479 4.479 0 0 0 .02 1.674c.111.576.315 1.09.613 1.543a3.95 3.95 0 0 0 1.088 1.112 3.96 3.96 0 0 0 1.435.598 4.22 4.22 0 0 0 1.657-.002 8.09 8.09 0 0 0 .89-.222c.272-.086.526-.187.76-.303a4.17 4.17 0 0 0 .646-.396c.197-.148.382-.315.556-.502l-.64-3.322-2.797.54zM67.06 86.142a1.15 1.15 0 0 1-.294.419 1.883 1.883 0 0 1-.554.348l-.684.299-.953-2.176.685-.3c.44-.193.805-.244 1.094-.154.29.089.505.295.645.618.072.16.114.32.127.482a.995.995 0 0 1-.066.464m1.398 1.009a1.712 1.712 0 0 0-.412-.072c.199-.195.359-.403.48-.624.122-.221.206-.45.254-.684.047-.235.056-.472.027-.712a2.533 2.533 0 0 0-.2-.717 2.524 2.524 0 0 0-.54-.796 1.895 1.895 0 0 0-.82-.465c-.32-.09-.693-.11-1.115-.054-.423.054-.9.198-1.43.43l-2.388 1.045 3.212 7.342 1.703-.745-1.19-2.716.435-.19a.701.701 0 0 1 .33-.073c.09.009.184.049.278.119l2.153 1.598c.218.16.47.179.756.054l1.542-.675-2.68-1.871a1.38 1.38 0 0 0-.395-.194M73.41 81.04l.426.295 1.898 1.326-1.76 1.302-.706-2.194a10.258 10.258 0 0 0-.377-1.11c.181.14.354.266.518.38zm-2.265-1.142l2.272 8.287 1.167-.863a.622.622 0 0 0 .241-.332.628.628 0 0 0 .007-.35l-.45-1.405 2.45-1.812 1.21.842c.102.07.218.105.346.103a.67.67 0 0 0 .388-.147l1.158-.857-7.258-4.597-1.53 1.131zM83.252 77.307a2.4 2.4 0 0 1-.477.842l-.801.95-3.94-3.321.801-.95a2.4 2.4 0 0 1 .75-.612c.271-.137.553-.207.847-.211.294-.004.595.057.905.184.311.127.616.319.92.574.305.257.547.528.724.813.178.284.29.57.335.86.045.29.024.58-.064.87m.231-3.998a4.194 4.194 0 0 0-1.415-.801 3.737 3.737 0 0 0-1.513-.172 3.884 3.884 0 0 0-1.485.465c-.484.26-.926.63-1.329 1.106l-2.006 2.38 6.127 5.166 2.006-2.381c.403-.476.692-.974.868-1.494.177-.52.246-1.034.206-1.542a3.757 3.757 0 0 0-.426-1.465 4.205 4.205 0 0 0-1.033-1.262M84.463 67.9l.515.076 2.288.348-1 1.947-1.606-1.654a8.418 8.418 0 0 0-.36-.383 11.703 11.703 0 0 0-.47-.446c.225.046.436.083.633.112zm-2.535-.02l5.709 6.423.664-1.292a.615.615 0 0 0 .068-.403.613.613 0 0 0-.148-.318l-1.027-1.06 1.393-2.71 1.459.218a.577.577 0 0 0 .356-.061.666.666 0 0 0 .283-.303l.659-1.281-8.546-.905-.87 1.692zM91.606 61.117l-.325 1.268-1.934-.494.322-1.258c.058-.227.127-.41.207-.548a.986.986 0 0 1 .274-.314.658.658 0 0 1 .337-.118c.124-.008.257.006.398.042.124.032.242.079.355.142a.815.815 0 0 1 .28.258c.075.11.123.249.145.416.021.166.002.367-.06.605m-3.223-.471l-.24.938-1.917-.49.27-1.056c.05-.202.111-.373.181-.512a.932.932 0 0 1 .254-.324.682.682 0 0 1 .35-.139c.135-.013.294.003.478.05.19.047.338.117.448.208.108.09.184.2.227.33.042.13.057.279.044.446-.013.167-.044.35-.095.549m3.868-2.294a2.304 2.304 0 0 0-.874-.426c-.436-.112-.826-.08-1.166.093-.341.174-.64.5-.895.98a2.693 2.693 0 0 0-.147-.678 1.785 1.785 0 0 0-.283-.51 1.524 1.524 0 0 0-.395-.35 1.75 1.75 0 0 0-.484-.204 2.317 2.317 0 0 0-.91-.06 1.653 1.653 0 0 0-.794.35c-.242.193-.462.465-.657.816-.194.35-.361.794-.498 1.33l-.73 2.857 7.763 1.985.792-3.103a4.11 4.11 0 0 0 .14-1.286 2.745 2.745 0 0 0-.262-1.04 2.187 2.187 0 0 0-.6-.753M92.855 50.735l-.172 2.965-6.517-.377-.108 1.856 8 .463.278-4.822zM89.339 46.852l-1.856.222-.391-3.266-1.42.17.612 5.122 7.957-.95-.612-5.123-1.42.17.39 3.265-1.895.226-.3-2.5-1.364.163z"/>
        <g transform="translate(0 -.175)">
            <mask id="b" fill="#fff">
                <use xlink:href="#a"/>
            </mask>
            <path fill="#7FBE72" d="M50.912 99C24.493 99 3 77.506 3 51.087 3 24.668 24.493 3.175 50.912 3.175c26.42 0 47.912 21.493 47.912 47.912S77.331 99 50.912 99m0-98.825C22.84.175 0 23.014 0 51.087 0 79.161 22.84 102 50.912 102c28.073 0 50.912-22.839 50.912-50.913 0-28.073-22.839-50.912-50.912-50.912" mask="url(#b)"/>
        </g>
        <path fill="#7FBE72" d="M45.665 51.744a15.65 15.65 0 0 0 .943 4.915.963.963 0 0 0-.411.235 1 1 0 0 0 0 1.414l2.037 2.038a13.507 13.507 0 0 1-6.938-3.718 13.501 13.501 0 0 1-3.943-8.58 13.476 13.476 0 0 1 8.312 3.696zm5.247-9.313c3.99 4.648 4.315 11.367.998 16.365V54.14a1 1 0 1 0-2 0v4.654c-3.315-4.997-2.989-11.716 1.002-16.363zm9.617 14.197a13.504 13.504 0 0 1-6.944 3.719l2.038-2.04a.999.999 0 0 0 0-1.413.97.97 0 0 0-.41-.235c.58-1.586.895-3.244.944-4.913a13.481 13.481 0 0 1 8.315-3.697 13.496 13.496 0 0 1-3.943 8.579zM36.314 46.01a1 1 0 0 0-1 1 15.5 15.5 0 0 0 4.568 11.032 15.5 15.5 0 0 0 11.027 4.565h.007a15.497 15.497 0 0 0 11.027-4.565 15.5 15.5 0 0 0 4.568-11.032 1 1 0 0 0-1-1h-.002a15.477 15.477 0 0 0-9.481 3.225 15.49 15.49 0 0 0-4.409-8.98.996.996 0 0 0-1.414 0c-2.519 2.517-3.978 5.693-4.411 8.977a15.479 15.479 0 0 0-9.478-3.222h-.002zM35.577 37.414a1 1 0 1 0 0-1.999 1 1 0 0 0 0 2M38.56 38.64a1 1 0 1 0-2 .002 1 1 0 0 0 2-.001M45.241 35.574a1 1 0 1 0 2 0 1 1 0 0 0-2 0M47.241 38.64a1 1 0 1 0 2 .001 1 1 0 0 0-2 0M35.577 30.886a1 1 0 1 0 0 2 1 1 0 0 0 0-2M37.56 33.09a1 1 0 1 0-.001 1.998 1 1 0 0 0 .002-1.998M42.23 30.912a1 1 0 1 0-2 .001 1 1 0 0 0 2 0M43.9 34.139a1 1 0 1 0 .001-2 1 1 0 0 0 0 2M46.571 31.66a1 1 0 1 0 0-2.001 1 1 0 0 0 0 2M43.9 29.478a1 1 0 1 0 .001-2 1 1 0 0 0 0 2M46.571 27.251a1 1 0 1 0 0-2 1 1 0 0 0 0 2M33.89 40.961a1 1 0 1 0 2 0 1 1 0 0 0-2 0M35.89 44.575a1 1 0 1 0-2-.001 1 1 0 0 0 2 0M33.248 52.343a1 1 0 1 0 2 0 1 1 0 0 0-2 0M35.56 58.873a1 1 0 1 0 2 0 1 1 0 0 0-2 0M38.23 62.475a1 1 0 1 0 2 0 1 1 0 0 0-2 0M44.571 64.475a1 1 0 1 0 2 0 1 1 0 0 0-2 0M32.918 33.139a1 1 0 1 0-.002 1.998 1 1 0 0 0 .002-1.998"/>
        <path fill="#7FBE72" d="M50.91 52.437a1 1 0 0 0 1-1v-1.03a1 1 0 1 0-2 0v1.03a1 1 0 0 0 1 1M56.013 55.09a.999.999 0 1 0 1.414 1.415l2.202-2.203a.999.999 0 1 0-1.414-1.414l-2.202 2.203zM44.395 56.505a.997.997 0 0 0 1.413 0 .999.999 0 0 0 0-1.414l-2.203-2.203a.999.999 0 1 0-1.413 1.414l2.203 2.203zM59.31 41.74a4.916 4.916 0 0 1-.065-2.723 4.917 4.917 0 0 1 1.378-2.348 4.977 4.977 0 0 1-1.313 5.07m1.208-7.477a6.913 6.913 0 0 0-3.21 4.253 6.92 6.92 0 0 0 .74 5.277 1.002 1.002 0 0 0 1.369.354 6.91 6.91 0 0 0 3.21-4.253 6.916 6.916 0 0 0-.74-5.277 1 1 0 0 0-1.37-.354M42.51 41.74a4.921 4.921 0 0 1-1.38-2.349 4.914 4.914 0 0 1 .067-2.723 4.924 4.924 0 0 1 1.38 2.349c.237.91.21 1.847-.066 2.724m-2.577-7.124a6.911 6.911 0 0 0-.74 5.277 6.912 6.912 0 0 0 3.21 4.253 1.001 1.001 0 0 0 1.369-.355 6.915 6.915 0 0 0 .74-5.277 6.918 6.918 0 0 0-3.21-4.253 1 1 0 0 0-1.37.355M51.877 31.674a5.657 5.657 0 0 1-.965 3.175 5.723 5.723 0 0 1 0-6.35c.628.932.965 2.028.965 3.175m-1.673-5.448c-3.004 3.004-3.004 7.89 0 10.896a1.003 1.003 0 0 0 1.414 0 7.652 7.652 0 0 0 2.259-5.448 7.652 7.652 0 0 0-2.259-5.448 1 1 0 0 0-1.414 0M67.245 36.414a1 1 0 1 0-2 0 1 1 0 0 0 2 0M64.263 39.64a1 1 0 1 0 0-1.999 1 1 0 0 0 0 2M54.582 35.574a1 1 0 1 0 2 0 1 1 0 0 0-2 0M52.582 38.64a1 1 0 1 0 2 .001 1 1 0 0 0-2 0M66.245 30.886a1 1 0 1 0 0 2 1 1 0 0 0 0-2M64.263 33.09a1 1 0 1 0 0 2 1 1 0 0 0 0-2M59.593 30.912a1 1 0 1 0 2 .001 1 1 0 0 0-2 0M57.922 34.139a1 1 0 1 0 0-2 1 1 0 0 0 0 2M55.252 31.66a1 1 0 1 0 0-2 1 1 0 0 0 0 2M57.922 29.478a1 1 0 1 0 0-2 1 1 0 0 0 0 2M55.252 27.251a1 1 0 1 0 .002-1.998 1 1 0 0 0-.002 1.998M66.933 39.961a1 1 0 1 0 0 2 1 1 0 0 0 0-2M67.933 44.575a1 1 0 1 0-2-.001 1 1 0 0 0 2 0M67.575 53.343a1 1 0 1 0 0-2 1 1 0 0 0 0 2M64.263 58.873a1 1 0 1 0 2 0 1 1 0 0 0-2 0M61.593 62.475a1 1 0 1 0 2 0 1 1 0 0 0-2 0M55.252 64.475a1 1 0 1 0 2 0 1 1 0 0 0-2 0M69.905 34.139a1 1 0 1 0-1.998-.002 1 1 0 0 0 1.998.002"/>
        <path fill="#7FBE72" d="M28.951 40.782a1.312 1.312 0 0 0-.148-1.356l-.019-.023a1.32 1.32 0 0 0-2.248.241 26.705 26.705 0 0 0-2.426 13.138c.922 13.436 12.028 24.32 25.48 24.965.32.015.637.016.956.021.318-.005.635-.006.956-.021 13.452-.645 24.558-11.529 25.48-24.965a26.706 26.706 0 0 0-2.427-13.138c-.417-.901-1.644-1.031-2.248-.241l-.017.023a1.308 1.308 0 0 0-.149 1.356 23.975 23.975 0 0 1 2.25 10.13c0 3.047-.572 5.96-1.603 8.648a288.144 288.144 0 0 0-2.057-15.581 10.199 10.199 0 0 1-.13-1.594l-.007-3.746c0-.553-.492-.972-1.002-.998a1 1 0 0 0-.998 1.002l.007 3.745c.001.635.054 1.277.156 1.91.364 2.245 1.58 10.057 2.36 18.751-4.14 7.114-11.795 11.941-20.57 12.071-8.342-.124-15.67-4.49-19.93-11.03.77-9.082 2.063-17.408 2.45-19.793.101-.632.154-1.274.155-1.909l.006-3.745a1 1 0 0 0-.998-1.002h-.002a1 1 0 0 0-1 .998l-.006 3.746a10.177 10.177 0 0 1-.13 1.593 289.388 289.388 0 0 0-2.2 16.982 24.064 24.064 0 0 1-2.19-10.048c0-3.619.815-7.045 2.25-10.13"/>
    </g>
</svg>
