<svg xmlns="http://www.w3.org/2000/svg" width="6" height="9" viewBox="0 0 6 9">
    <path fill="none" fill-rule="evenodd" stroke="#2C385F" stroke-linecap="round" stroke-linejoin="round" stroke-width="2" d="M5 8L1 4.5 5 1"/>
</svg>
