<svg xmlns="http://www.w3.org/2000/svg" width="22" height="22" viewBox="0 0 22 22">
    <g fill="none" fill-rule="evenodd" stroke="#778489" stroke-linecap="round" stroke-linejoin="round" stroke-width="2">
        <path d="M21 11c0 5.523-4.477 10-10 10S1 16.523 1 11C1 5.477 5.477 1 11 1s10 4.478 10 10z"/>
        <path d="M16.24 19.527v-8.675h2.545L11 3.49l-7.784 7.362H5.76v8.675"/>
        <path d="M12.746 20.496v-4.678a1.746 1.746 0 0 0-3.492 0v4.678"/>
    </g>
</svg>
