<svg xmlns="http://www.w3.org/2000/svg" width="104" height="104" viewBox="0 0 104 104">
    <g fill="none" fill-rule="evenodd">
        <path fill="#AA89CC" d="M76.752 63.58l-7.777-7.785 1.172-.079a2.918 2.918 0 0 1-.046-.743 3.892 3.892 0 0 1-.463-1.126c-.006-.012-.006-.025-.011-.037.883 1.157 2.262 1.915 3.829 1.915a4.83 4.83 0 1 0 0-9.662 4.805 4.805 0 0 0-3.318 1.335c.049-.557.13-1.102.272-1.615.124-.446.302-.852.518-1.22a1.303 1.303 0 0 0-.475.594h-.332c-.038-1.087-.157-2.509-.731-3.459l2.402-2.406a2.333 2.333 0 0 1-.411-1.189c-.111-2.038-3.325-3.953-4.991-4.62a2.558 2.558 0 0 1-1.442-1.39l-1.201 1.2c-.784-.539-1.874-.429-2.741-.138a5.52 5.52 0 0 0-1.08.51 1.882 1.882 0 0 0-.856.132c-.058.026-.105.07-.16.101v-1.11c-.474.241-.97.455-1.467.654-.236.095-.493.193-.75.29a4.794 4.794 0 0 0 1.234-3.197 4.83 4.83 0 1 0-9.662 0c0 2.144 1.407 3.941 3.34 4.572-1.133.151-2.263.175-3.302-.038l-.134 2.02-8.052-10.212a5.708 5.708 0 0 0-.441-.496 5.524 5.524 0 0 0-3.932-1.633 5.543 5.543 0 0 0-4.387 2.146c-.891 1.131-1.253 2.592-1.151 4.028l.218 3.061c-.242.064-.47.183-.648.375a3.913 3.913 0 0 0-1.036 3.001l-4.97-1.489a9.437 9.437 0 0 0-2.714-.397c-3.612 0-6.917 2.026-8.622 5.544-1.215 2.506-1.088 5.458.115 7.97l.015.03c-.142.07-.28.157-.405.282-1.445 1.436-1.171 3.811-.821 5.691l-.716.432a7.04 7.04 0 0 0-1.52 1.206 7.418 7.418 0 0 0 .113 10.35 7.447 7.447 0 0 0 3.34 1.918l5.937 1.593-2.615 5.188c-1.77 3.508-1.332 7.836 1.37 10.69a9.052 9.052 0 0 0 6.619 2.851 9.133 9.133 0 0 0 4.133-.989l5.503-2.805 1.598 5.967c.348 1.301 1.057 2.557 1.946 3.446A7.32 7.32 0 0 0 42.26 97a7.365 7.365 0 0 0 6.312-3.574l.45-.747c.193.035.403.035.63-.017.244-.055.489-.09.732-.14.324.212.734.303 1.209.154l2.5-.7c.345-.094.597-.297.773-.55l.149.071a9.463 9.463 0 0 0 4.064.92 9.354 9.354 0 0 0 6.495-2.603c2.64-2.516 3.484-6.393 2.44-9.887l-1.554-5.196a9.932 9.932 0 0 0 2.133-.638c.254-.108.435-.31.556-.55l4.109.292a5.517 5.517 0 0 0 4.328-1.618c1.967-1.969 1.554-6.247-.834-8.638"/>
        <path stroke="#2C385F" stroke-linecap="round" stroke-linejoin="round" stroke-width="4" d="M50.871 51.407l1.676 1.679a9.302 9.302 0 0 1 2.405 8.98l-.703 2.627a8.715 8.715 0 0 1-6.164 6.166l-1.64.44a11.03 11.03 0 0 1-10.663-2.859l-.265-.265a11.03 11.03 0 0 1-2.852-10.649l.445-1.664a8.717 8.717 0 0 1 6.163-6.166l2.607-.7a9.305 9.305 0 0 1 8.991 2.411z"/>
        <path stroke="#2C385F" stroke-linecap="round" stroke-linejoin="round" stroke-width="4" d="M30.63 47.215l-1.698-1.7a9.274 9.274 0 0 0-8.964-2.404l-1.346.361a11.007 11.007 0 0 0-7.781 7.785l-.107.401a11.004 11.004 0 0 0 2.845 10.625l.286.286a11.007 11.007 0 0 0 10.638 2.852l1.345-.36a9.273 9.273 0 0 0 6.556-6.56l.625-2.333a9.274 9.274 0 0 0-2.398-8.953zM34.526 67.183l2.262 2.265a7.69 7.69 0 0 1 1.988 7.422l-.487 1.818a10.29 10.29 0 0 1-7.02 7.206 10.456 10.456 0 0 1-10.277-2.55l-.172-.168a10.277 10.277 0 0 1-2.709-10.124l.037-.13a10.519 10.519 0 0 1 7.402-7.317l1.545-.414a7.688 7.688 0 0 1 7.431 1.992z"/>
        <path stroke="#2C385F" stroke-linecap="round" stroke-linejoin="round" stroke-width="4" d="M7.985 51.142a12.398 12.398 0 0 0-2.36 19.37 12.366 12.366 0 0 0 11.954 3.206M50.627 51.162l2.152 2.155a8.72 8.72 0 0 0 8.428 2.26l2.932-.788a8.716 8.716 0 0 0 6.163-6.166l.445-1.664a11.028 11.028 0 0 0-2.851-10.648l-.266-.266a11.032 11.032 0 0 0-10.662-2.858l-1.641.44a8.719 8.719 0 0 0-6.164 6.166l-.79 2.953a8.718 8.718 0 0 0 2.254 8.416z"/>
        <path stroke="#2C385F" stroke-linecap="round" stroke-linejoin="round" stroke-width="4" d="M71.773 57.422l1.23 1.233a9.027 9.027 0 0 1 2.335 8.714l-.23.86a10.522 10.522 0 0 1-7.438 7.442h-.006a10.518 10.518 0 0 1-10.17-2.725l-.621-.622a9.029 9.029 0 0 1-2.333-8.714l.453-1.693a9.027 9.027 0 0 1 6.38-6.385l1.675-.45a9.028 9.028 0 0 1 8.725 2.34zM56.743 73.354l1.684 1.686a9.294 9.294 0 0 1 2.402 8.971l-.359 1.342a11.031 11.031 0 0 1-7.798 7.802l-.352.095a11.032 11.032 0 0 1-10.662-2.859l-.266-.266a11.031 11.031 0 0 1-2.852-10.648l.36-1.343a9.291 9.291 0 0 1 6.57-6.573l2.291-.615a9.292 9.292 0 0 1 8.982 2.408zM74.904 59.396a6.313 6.313 0 0 0 1.41-.212l1.15-.308a8.387 8.387 0 0 0 3.754-14.026 8.363 8.363 0 0 0-8.09-2.17l-1.15.308a6.226 6.226 0 0 0-.93.33M44.56 29.021c.017-.47.086-.944.211-1.41l.31-1.152a8.37 8.37 0 1 1 14.012-3.758 8.39 8.39 0 0 1 2.166 8.098l-.308 1.151a6.403 6.403 0 0 1-.329.933M11.208 73.726c-2.67 5.298-1.796 11.929 2.625 16.354 4.434 4.438 11.084 5.307 16.384 2.604M27.998 32.278c-5.487-3.048-12.53-2.24-17.19 2.426-4.448 4.45-5.388 11.073-2.82 16.442"/>
        <path stroke="#2C385F" stroke-linecap="round" stroke-linejoin="round" stroke-width="4" d="M45.269 25.855a10.565 10.565 0 0 0-2.108-3.007 10.55 10.55 0 0 0-14.94 0 10.55 10.55 0 0 0-3.068 8.233M71.655 75.98c3.04 5.493 2.232 12.54-2.427 17.204-4.447 4.452-11.062 5.392-16.425 2.823M52.806 96.009a12.366 12.366 0 0 1-19.35 2.362 12.398 12.398 0 0 1-3.203-11.966"/>
        <path stroke="#2C385F" stroke-linecap="round" stroke-linejoin="round" stroke-width="4" d="M78.067 58.687a10.56 10.56 0 0 1 3.004 2.11c4.129 4.133 4.129 10.822 0 14.954a10.528 10.528 0 0 1-8.224 3.073M46.546 32.17L45.3 30.922a9.01 9.01 0 0 0-8.708-2.334l-.863.232a10.498 10.498 0 0 0-7.42 7.425l-.015.052a10.499 10.499 0 0 0 2.713 10.135l.64.64a9.006 9.006 0 0 0 8.707 2.334l1.694-.454a9.01 9.01 0 0 0 6.37-6.372l.457-1.713a9.009 9.009 0 0 0-2.329-8.697zM61.545 28.599c6.236-7.642 15.726-12.516 26.363-12.516M75.498 42.397c7.58-6.244 12.41-15.709 12.41-26.314"/>
        <path stroke="#2C385F" stroke-linecap="round" stroke-linejoin="round" stroke-width="4" d="M80.237 60.046A33.876 33.876 0 0 0 102 50.14a33.9 33.9 0 0 0-24.057-9.983M63.859 26.058A33.916 33.916 0 0 0 53.886 2c-6.07 6.077-9.37 13.844-9.897 21.785"/>
        <path stroke="#FFF" stroke-linecap="round" stroke-linejoin="bevel" stroke-width="3" d="M64.939 44.209a5.095 5.095 0 0 1-5.095 5.095M70.007 65.462a5.095 5.095 0 0 1-5.095 5.095M43.542 38.997a5.095 5.095 0 0 1-5.095 5.095M54.68 82.228a5.095 5.095 0 0 1-5.096 5.095"/>
    </g>
</svg>
