<svg xmlns="http://www.w3.org/2000/svg" width="76" height="132" viewBox="0 0 76 132">
    <g fill="none" fill-rule="evenodd" stroke="#FFF" stroke-linecap="round" stroke-linejoin="round" stroke-width="2" opacity=".1">
        <path d="M61.59 17.028c0 5.03-4.091 9.109-9.139 9.109-5.047 0-9.138-4.078-9.138-9.11a9.075 9.075 0 0 1 3.153-6.883"/>
        <path d="M62.154 17.986c-.087-.257-.47-.227-.523.038-1.123 5.755-6.488 9.789-12.447 9.16a11.44 11.44 0 0 1-8.443-5.188c-.515-.8-1.788-.343-1.622.592a7.882 7.882 0 0 0 1.691 3.645c2.552 5.777 9.307 8.394 15.103 5.849 5.477-2.405 8.122-8.551 6.241-14.096zM39.497 21.739a7.282 7.282 0 0 1 4.384-1.554M61.78 17.028c-5.453-6.95-14.985-8.823-22.557-4.887-.087.046-.192-.022-.182-.12a7.87 7.87 0 0 1 1.77-4.2c2.552-5.775 9.306-8.392 15.102-5.848 5.796 2.544 8.42 9.278 5.868 15.055M47.465 5.32c-.735.158-1.461.385-2.17.683M56.676 7a12.299 12.299 0 0 0-6.038-1.936M61.59 17.028c4.89 0 9.235 2.305 12.002 5.886M72.93 27.894c0 4.729-3.838 8.555-8.582 8.555M72.93 27.894c-4.744 0-8.582 3.826-8.582 8.555M28.464 110.69v-1.651a4.367 4.367 0 0 0-2.19-3.787l-1.696-.976a3.892 3.892 0 0 0-3.881 0l-.985.567a5.787 5.787 0 0 0-2.9 5.014v.016a5.784 5.784 0 0 0 2.9 5.013l.985.568a3.892 3.892 0 0 0 3.881 0l1.696-.976a4.37 4.37 0 0 0 2.19-3.787z"/>
        <path d="M22.638 119.092v1.662a4.359 4.359 0 0 1-2.186 3.78l-.754.434a5.787 5.787 0 0 1-5.772 0l-.04-.022a5.79 5.79 0 0 1-2.9-5.015v-.015a5.784 5.784 0 0 1 2.9-5.014l.75-.432a4.362 4.362 0 0 1 4.352 0l1.464.843a4.358 4.358 0 0 1 2.186 3.78zM16.812 111.182v-2.636a3.063 3.063 0 0 0-1.535-2.654l-1.31-.754a5.204 5.204 0 0 0-5.078-.064l-.052.027a5.34 5.34 0 0 0-2.796 4.634l-.002.152a5.194 5.194 0 0 0 2.657 4.594l.097.055a5.398 5.398 0 0 0 5.325-.033l1.16-.668a3.059 3.059 0 0 0 1.534-2.653z"/>
        <path d="M12.995 126.08a6.37 6.37 0 0 1-4.704-.663 6.327 6.327 0 0 1-3.175-5.484 6.329 6.329 0 0 1 3.175-5.484M28.464 110.968v-2.207c0-1.392.743-2.678 1.95-3.37l1.935-1.115a3.887 3.887 0 0 1 3.881 0l.986.567a5.784 5.784 0 0 1 2.9 5.014v.014a5.785 5.785 0 0 1-2.9 5.015l-.986.567a3.887 3.887 0 0 1-3.881 0l-1.935-1.114a3.886 3.886 0 0 1-1.95-3.37zM33.87 100.993v-1.405c0-1.49-.797-2.866-2.089-3.61l-.625-.36a5.397 5.397 0 0 0-5.384 0l-.009.005a5.398 5.398 0 0 0-2.705 4.678v.692c0 1.489.796 2.866 2.088 3.609l1.24.714c1.286.74 2.87.74 4.155 0l1.24-.714a4.164 4.164 0 0 0 2.088-3.61zM22.638 100.636v-1.66a4.359 4.359 0 0 0-2.186-3.78l-.754-.436a5.792 5.792 0 0 0-5.772 0l-.04.023a5.79 5.79 0 0 0-2.9 5.015v.015a5.784 5.784 0 0 0 2.9 5.014l.75.432a4.362 4.362 0 0 0 4.352 0l1.464-.843a4.359 4.359 0 0 0 2.186-3.78z"/>
        <path d="M34.29 98.887a3.25 3.25 0 0 1 .588-.434l.53-.304a4.307 4.307 0 0 1 4.298 0 4.282 4.282 0 0 1 2.149 3.711 4.283 4.283 0 0 1-2.15 3.711l-.528.304a3.29 3.29 0 0 1-.457.218M34.29 120.842c.177.164.374.311.588.434l.53.304a4.307 4.307 0 0 0 4.298 0 4.282 4.282 0 0 0 2.149-3.71 4.282 4.282 0 0 0-2.15-3.712l-.528-.304a3.29 3.29 0 0 0-.457-.218M5.977 116.751c-2.89-.948-4.977-3.66-4.977-6.86 0-3.208 2.099-5.927 5.003-6.869M27.098 125.658A7.399 7.399 0 0 1 19.98 131a7.403 7.403 0 0 1-6.985-4.922"/>
        <path d="M35.695 121.73c.21.577.325 1.2.325 1.85 0 2.987-2.425 5.405-5.422 5.405a5.419 5.419 0 0 1-4.1-1.865M27.097 94.069a7.4 7.4 0 0 0-7.118-5.34 7.403 7.403 0 0 0-6.985 4.922"/>
        <path d="M12.995 93.65a6.366 6.366 0 0 0-4.703.662 6.33 6.33 0 0 0-3.176 5.484 6.33 6.33 0 0 0 3.176 5.484M35.695 98c.21-.578.325-1.2.325-1.85 0-2.988-2.425-5.406-5.422-5.406a5.419 5.419 0 0 0-4.1 1.865M33.87 118.737v1.404a4.166 4.166 0 0 1-2.089 3.61l-.625.36a5.397 5.397 0 0 1-5.384 0l-.009-.004a5.398 5.398 0 0 1-2.705-4.678v-.692c0-1.49.796-2.866 2.088-3.61l1.24-.713a4.166 4.166 0 0 1 4.155 0l1.24.714a4.163 4.163 0 0 1 2.088 3.609zM40.607 114.851c5.034.505 10.245-1.166 14.106-5.015M40.669 104.816c5.015-.486 10.199 1.187 14.044 5.02"/>
        <path d="M35.99 96.723a17.425 17.425 0 0 1 11.49-4.294c0 4.811-1.952 9.162-5.112 12.312M42.368 114.931a17.298 17.298 0 0 1 5.103 12.304 17.404 17.404 0 0 1-11.49-4.293M23.644 86.963c0-11.014 8.941-19.926 19.99-19.926M23.644 86.963c0 .968.07 1.92.203 2.85M29.412 72.96c7.511 0 13.59 6.06 13.59 13.547M29.412 72.96c0 7.488 6.078 13.547 13.59 13.547M23.644 86.963c0 .968.07 1.92.203 2.85M75 19.432a17.34 17.34 0 0 0-1.312 13.292c.808 2.636 1.005 5.448.19 8.081a18.686 18.686 0 0 1-17.87 13.133M38.848 57.52c-.252-.545-.364-1.133-.284-1.539.078-.402.396-.898.827-1.306a1.01 1.01 0 0 0 0-1.473c-.43-.409-.749-.904-.827-1.306-.08-.406.032-.994.284-1.539M34.98 46.875c-.984.215-1.968 1.216-2.144 1.942-.134.554.077 1.464.53 2.15a.802.802 0 0 1-.138 1.022c-.592.56-1.003 1.385-1.003 1.948 0 .565.411 1.39 1.003 1.95a.802.802 0 0 1 .137 1.023c-.452.684-.663 1.595-.529 2.15.176.724 1.16 1.726 2.143 1.941"/>
        <path d="M34.979 61.001c1.893 3.68 5.313 6.121 9.612 6.121 6.684 0 11.242-5.902 11.242-13.184 0-7.282-4.558-13.184-11.242-13.184-4.3 0-7.72 2.441-9.612 6.121M68.404 49.196c7.31 7.287 7.31 19.08 0 26.368M68.404 49.196c7.31 7.287 7.31 19.08 0 26.368M58.811 90.192c-.565-.208-1.06-.545-1.293-.89-.23-.338-.357-.912-.34-1.505a1.015 1.015 0 0 0-1.047-1.042c-.594.016-1.17-.111-1.51-.34-.346-.231-.684-.725-.892-1.288M48.524 85.392c-.543.845-.528 2.246-.138 2.884.298.486 1.094.981 1.899 1.146a.804.804 0 0 1 .628.822c-.021.811.273 1.685.674 2.084.4.399 1.276.692 2.091.67.39-.009.744.246.823.627.166.803.663 1.595 1.15 1.893.64.389 2.046.403 2.894-.138"/>
        <path d="M58.544 95.381c3.95 1.268 8.1.583 11.14-2.447 4.725-4.71 3.761-12.098-1.404-17.247-5.165-5.149-12.575-6.11-17.302-1.398-3.04 3.03-3.726 7.167-2.455 11.103M68.257 49.196c0-5.771-4.685-10.441-10.475-10.441M68.257 49.196c-5.79 0-10.475-4.67-10.475-10.441M73.887 62.38c-4.094-4.082-10.72-4.082-14.813 0M73.887 62.38c-4.094 4.08-10.72 4.08-14.813 0"/>
    </g>
</svg>
